%YAML 1.1
%TAG !u! tag:unity3d.com,2011:
--- !u!114 &11400000
MonoBehaviour:
  m_ObjectHideFlags: 0
  m_CorrespondingSourceObject: {fileID: 0}
  m_PrefabInternal: {fileID: 0}
  m_GameObject: {fileID: 0}
  m_Enabled: 1
  m_EditorHideFlags: 0
  m_Script: {fileID: 11500000, guid: 447c3f900b1cb2745a5d607d70d657e9, type: 3}
  m_Name: AchievementPlayGames
  m_EditorClassIdentifier: 
  description: Play 30 games.
  parameterType: 4
  goal: 30
